…
::: {.cell hash='index_cache/revealjs/unnamed-chunk-26_0e5eccbb3d743738157aacf1430b21b6'}

:::

::: {.cell hash='index_cache/revealjs/unnamed-chunk-27_5b5e170826a1adeef126e59512819ae6'}

```{.r .cell-code}
library(tsibble)
library(fable)
tourism
```

::: {.cell-output .cell-output-stdout}
```
# A tsibble: 24,320 x 5 [1Q]
# Key:       Region, State, Purpose [304]
   Quarter Region   State           Purpose  Trips
     <qtr> <chr>    <chr>           <chr>    <dbl>
 1 1998 Q1 Adelaide South Australia Business  135.
 2 1998 Q2 Adelaide South Australia Business  110.
 3 1998 Q3 Adelaide South Australia Business  166.
 4 1998 Q4 Adelaide South Australia Business  127.
 5 1999 Q1 Adelaide South Australia Business  137.
 6 1999 Q2 Adelaide South Australia Business  200.
 7 1999 Q3 Adelaide South Australia Business  169.
 8 1999 Q4 Adelaide South Australia Business  134.
 9 2000 Q1 Adelaide South Australia Business  154.
10 2000 Q2 Adelaide South Australia Business  169.
# i 24,310 more rows
```
…
::: {.cell hash='index_cache/revealjs/unnamed-chunk-28_20ead00fad04246691deb4db682bcdbc'}

```{.r .cell-code}
tourism |> 
  aggregate_key(
    Purpose * (State / Region),
    Trips = sum(Trips)
  )
```

::: {.cell-output .cell-output-stdout}
```
# A tsibble: 34,000 x 5 [1Q]
# Key:       Purpose, State, Region [425]
   Quarter Purpose      State        Region        Trips
     <qtr> <chr*>       <chr*>       <chr*>        <dbl>
 1 1998 Q1 <aggregated> <aggregated> <aggregated> 23182.
 2 1998 Q2 <aggregated> <aggregated> <aggregated> 20323.
 3 1998 Q3 <aggregated> <aggregated> <aggregated> 19827.
 4 1998 Q4 <aggregated> <aggregated> <aggregated> 20830.
 5 1999 Q1 <aggregated> <aggregated> <aggregated> 22087.
 6 1999 Q2 <aggregated> <aggregated> <aggregated> 21458.
 7 1999 Q3 <aggregated> <aggregated> <aggregated> 19914.
 8 1999 Q4 <aggregated> <aggregated> <aggregated> 20028.
 9 2000 Q1 <aggregated> <aggregated> <aggregated> 22339.
10 2000 Q2 <aggregated> <aggregated> <aggregated> 19941.
# i 33,990 more rows
```
…
::: {.cell hash='index_cache/revealjs/unnamed-chunk-29_1eba1c3ede467fa4a9399d2e34bfa2f4'}

```{.r .cell-code}
tourism |> 
  aggregate_key(
    Purpose * (State / Region),
    Trips = sum(Trips)
  ) |> 
  key_data()
```

::: {.cell-output .cell-output-stdout}
```
# A tibble: 425 x 4
   Purpose  State           Region                 .rows
   <chr*>   <chr*>          <chr*>                 <lis>
 1 Business ACT             Canberra                [80]
 2 Business ACT             <aggregated>            [80]
 3 Business New South Wales Blue Mountains          [80]
 4 Business New South Wales Capital Country         [80]
 5 Business New South Wales Central Coast           [80]
 6 Business New South Wales Central NSW             [80]
 7 Business New South Wales Hunter                  [80]
 8 Business New South Wales New England North West  [80]
 9 Business New South Wales North Coast NSW         [80]
10 Business New South Wales Outback NSW             [80]
# i 415 more rows
```
…
::: {.cell hash='index_cache/revealjs/unnamed-chunk-34_12bee93c8b060427c915f4e0a3189ff1'}

```{.r .cell-code}
tourism |> 
  aggregate_key(
    Purpose + State,
    Trips = sum(Trips)
  ) |> 
  stretch_tsibble(.step = 4, .init = 60) |> 
  key_data()
```

::: {.cell-output .cell-output-stdout}
```
# A tibble: 78 x 4
     .id Purpose      State                    .rows
   <int> <chr*>       <chr*>             <list<int>>
 1     1 Business     <aggregated>              [60]
 2     1 Holiday      <aggregated>              [60]
 3     1 Other        <aggregated>              [60]
 4     1 Visiting     <aggregated>              [60]
 5     1 <aggregated> ACT                       [60]
 6     1 <aggregated> New South Wales           [60]
 7     1 <aggregated> Northern Territory        [60]
 8     1 <aggregated> Queensland                [60]
 9     1 <aggregated> South Australia           [60]
10     1 <aggregated> Tasmania                  [60]
# i 68 more rows
```
…
```{.r .cell-code}
tourism |> 
  aggregate_key(
    Purpose + State,
    Trips = sum(Trips)
  ) |> 
  stretch_tsibble(.step = 4, .init = 60) |> 
  model(ets = ETS(Trips)) |> 
  reconcile(ets_coherent = min_trace(ets)) |> 
  forecast(h = "1 year")
```

::: {.cell-output .cell-output-stdout}
```
# A fable: 624 x 7 [1Q]
# Key:     .id, Purpose, State, .model [156]
     .id Purpose  State        .model       Quarter
   <int> <chr*>   <chr*>       <chr>          <qtr>
 1     1 Business <aggregated> ets          2013 Q1
 2     1 Business <aggregated> ets          2013 Q2
 3     1 Business <aggregated> ets          2013 Q3
 4     1 Business <aggregated> ets          2013 Q4
 5     1 Business <aggregated> ets_coherent 2013 Q1
 6     1 Business <aggregated> ets_coherent 2013 Q2
 7     1 Business <aggregated> ets_coherent 2013 Q3
 8     1 Business <aggregated> ets_coherent 2013 Q4
 9     1 Holiday  <aggregated> ets          2013 Q1
10     1 Holiday  <aggregated> ets          2013 Q2
# i 614 more rows
# i 2 more variables: Trips <dist>, .mean <dbl>
```
…
